module gitlab.com/srecore/cujs

go 1.23.1

require (
	github.com/stretchr/testify v1.9.0
	gopkg.in/yaml.v2 v2.4.0
)

require (
	github.com/davecgh/go-spew v1.1.1 // indirect
	github.com/google/go-cmp v0.6.0
	github.com/pmezard/go-difflib v1.0.0 // indirect
	gopkg.in/yaml.v3 v3.0.1 // indirect
)
